%YAML 1.1
%TAG !u! tag:unity3d.com,2011:
--- !u!78 &1
TagManager:
  serializedVersion: 2
  tags: []
  layers:
  - Default
  - TransparentFX
  - Ignore Raycast
  - 
  - Water
  - UI
  - 
  - 
  - Player
  - Obstructions
  - 
  - 
  - 
  - 
  - 
  - 
  - 
  - 
  - 
  - 
  - 
  - 
  - 
  - 
  - 
  - 
  - 
  - 
  - 
  - 
  - 
  - 
  m_SortingLayers:
  - name: Default
    uniqueID: 0
    locked: 0
  - name: Ground
    uniqueID: 3357641353
    locked: 0
  - name: Floor
    uniqueID: 3156855391
    locked: 0
  - name: Walls
    uniqueID: 2834913807
    locked: 0
  - name: Objects
    uniqueID: 1809217419
    locked: 0
  - name: Objects2
    uniqueID: 1506451265
    locked: 0
